module bitbucket.org/Dzusmin/acai-messenger

go 1.16

require (
	github.com/gin-gonic/gin v1.6.3
	golang.org/x/sys v0.0.0-20200323222414-85ca7c5b95cd // indirect
	gorm.io/driver/mysql v1.0.5
	gorm.io/gorm v1.21.3
)
